[2019-12-30 10:35:56] START
[2019-12-30 10:43:58] EDIT isn/models/db.py: -18
[2019-12-30 10:44:08] EDIT isn/models/db.py: 0
[2019-12-30 10:44:34] EDIT isn/models/db.py: 0
[2019-12-30 10:45:32] EDIT isn/models/db.py: 0
[2019-12-30 10:45:36] EDIT isn/models/db.py: -1
[2019-12-30 10:45:38] EDIT isn/models/db.py: 0
[2019-12-30 10:45:40] EDIT isn/models/db.py: 1
[2019-12-30 10:45:55] EDIT isn/models/db.py: -3
[2019-12-30 10:46:46] EDIT isn/models/db.py: 0
[2019-12-30 11:26:23] CREATE userProfile.py: 0
[2019-12-30 11:28:48] EDIT isn/models/userProfile.py: 7
[2019-12-30 11:29:47] EDIT isn/models/userProfile.py: 0
[2019-12-30 11:30:08] EDIT isn/models/userProfile.py: 0
[2019-12-30 11:30:38] EDIT isn/models/userProfile.py: 0
[2019-12-30 11:30:41] EDIT isn/models/userProfile.py: 0
[2019-12-30 11:31:31] EDIT isn/models/userProfile.py: 1
[2019-12-30 11:32:57] EDIT isn/models/userProfile.py: 0
[2019-12-30 11:33:09] EDIT isn/models/userProfile.py: 0
[2019-12-30 11:33:11] EDIT isn/models/userProfile.py: 0
[2019-12-30 11:34:42] EDIT isn/models/userProfile.py: 0
[2019-12-30 11:36:00] EDIT isn/models/userProfile.py: 0
[2019-12-30 11:36:02] EDIT isn/models/userProfile.py: 0
[2019-12-30 11:36:04] EDIT isn/models/userProfile.py: 0
[2019-12-30 11:36:22] EDIT isn/models/userProfile.py: 0
[2019-12-30 11:36:26] EDIT isn/models/userProfile.py: 0
[2019-12-30 11:36:52] EDIT isn/models/userProfile.py: 0
[2019-12-30 11:37:20] EDIT isn/models/userProfile.py: 1
[2019-12-30 11:37:21] EDIT isn/models/userProfile.py: 0
[2019-12-30 11:37:35] EDIT isn/models/userProfile.py: 0
[2019-12-30 18:26:30] CREATE messages.py: 0
[2019-12-30 18:26:41] CREATE posts.py: 0
[2019-12-30 18:26:58] CREATE files.py: 0
[2019-12-30 18:29:14] EDIT isn/models/profiles.py: 0
[2019-12-30 18:29:43] EDIT isn/models/profiles.py: 0
[2019-12-30 18:29:45] EDIT isn/models/profiles.py: 0
[2019-12-30 18:29:53] EDIT isn/models/profiles.py: 0
[2019-12-30 18:29:55] EDIT isn/models/profiles.py: 0
[2019-12-30 18:31:41] EDIT isn/models/posts.py: 9
[2019-12-30 18:31:46] EDIT isn/models/posts.py: 0
[2019-12-30 18:31:48] EDIT isn/models/posts.py: 0
[2019-12-30 18:32:18] EDIT isn/models/posts.py: 0
[2019-12-30 18:32:32] EDIT isn/models/posts.py: 0
[2019-12-30 18:33:29] EDIT isn/models/posts.py: -1
[2019-12-30 18:33:30] EDIT isn/models/posts.py: 0
[2019-12-30 18:33:32] EDIT isn/models/posts.py: 0
[2019-12-30 18:33:33] EDIT isn/models/posts.py: 0
[2019-12-30 18:33:46] EDIT isn/models/posts.py: -2
[2019-12-30 18:33:48] EDIT isn/models/posts.py: 0
[2019-12-30 18:33:50] EDIT isn/models/posts.py: 0
[2019-12-30 18:33:56] EDIT isn/models/posts.py: 0
[2019-12-30 18:34:42] EDIT isn/models/posts.py: 1
[2019-12-30 18:34:46] EDIT isn/models/posts.py: 0
[2019-12-30 18:34:48] EDIT isn/models/posts.py: 0
[2019-12-30 18:35:11] EDIT isn/models/posts.py: 0
[2019-12-30 18:35:13] EDIT isn/models/posts.py: 0
[2019-12-30 18:35:16] EDIT isn/models/posts.py: 0
[2019-12-30 18:35:18] EDIT isn/models/posts.py: 0
[2019-12-30 18:36:30] CREATE post.py: 0
[2019-12-30 18:36:40] CREATE message.py: 0
[2019-12-30 18:37:30] CREATE private-admin.py: 0
[2019-12-30 18:38:19] EDIT isn/models/posts.py: 1
[2019-12-30 18:38:38] EDIT isn/models/posts.py: 1
[2019-12-30 18:39:54] EDIT isn/models/posts.py: 0
[2019-12-30 18:39:56] EDIT isn/models/posts.py: 0
[2019-12-30 18:40:00] EDIT isn/models/posts.py: 0
[2019-12-30 18:40:19] EDIT isn/models/profiles.py: 0
[2019-12-30 18:40:52] CREATE groups.py: 0
[2019-12-30 18:43:33] EDIT isn/models/files.py: 9
[2019-12-30 18:43:35] EDIT isn/models/files.py: 0
[2019-12-30 18:43:43] EDIT isn/models/files.py: 0
[2019-12-30 18:43:46] EDIT isn/models/files.py: 0
[2019-12-30 18:45:05] EDIT isn/models/profiles.py: 1
[2019-12-30 18:45:38] EDIT isn/models/profiles.py: 0
[2019-12-30 18:46:02] EDIT isn/models/files.py: 0
[2019-12-30 18:46:15] EDIT isn/models/files.py: 0
[2019-12-30 18:46:57] EDIT isn/models/files.py: 0
[2019-12-30 18:47:34] EDIT isn/models/groups.py: 10
[2019-12-30 18:47:39] EDIT isn/models/groups.py: 0
[2019-12-30 18:47:45] EDIT isn/models/groups.py: 0
[2019-12-30 18:47:58] EDIT isn/models/groups.py: -5
[2019-12-30 18:48:13] CREATE tags.py: 0
[2019-12-30 18:48:23] EDIT isn/models/tags.py: 10
[2019-12-30 18:48:55] EDIT isn/models/tags.py: -4
[2019-12-30 18:48:59] EDIT isn/models/tags.py: 0
[2019-12-30 18:49:02] EDIT isn/models/tags.py: -2
[2019-12-30 18:49:04] EDIT isn/models/tags.py: 0
[2019-12-30 18:49:05] EDIT isn/models/tags.py: 0
[2019-12-30 18:49:10] EDIT isn/models/tags.py: 0
[2019-12-30 18:50:47] CREATE tag.py: 0
[2019-12-30 18:50:56] CREATE group.py: 0
[2019-12-30 18:53:06] CREATE file.py: 0
[2019-12-30 19:02:35] EDIT isn/models/files.py: 0
[2019-12-30 19:02:51] EDIT isn/models/files.py: 0
[2019-12-30 19:02:55] EDIT isn/models/files.py: 0
[2019-12-30 19:03:33] EDIT isn/models/files.py: 0
[2019-12-30 19:03:34] EDIT isn/models/files.py: 0
[2019-12-30 19:04:03] EDIT isn/models/files.py: 1
[2019-12-30 19:04:07] EDIT isn/models/files.py: 0
[2019-12-30 19:04:13] EDIT isn/models/files.py: 0
[2019-12-30 19:06:27] EDIT isn/models/posts.py: 0
[2019-12-30 19:07:30] EDIT isn/models/posts.py: 0
[2019-12-30 19:07:32] EDIT isn/models/posts.py: 0
[2019-12-30 19:09:16] EDIT isn/models/posts.py: 0
[2019-12-31 16:47:00] EDIT isn/models/files.py: 0
[2019-12-31 16:47:02] EDIT isn/models/files.py: 0
[2019-12-31 16:47:33] EDIT isn/models/files.py: -1
[2019-12-31 16:47:59] EDIT isn/models/groups.py: 0
[2019-12-31 16:48:43] EDIT isn/models/posts.py: 0
[2019-12-31 16:49:00] EDIT isn/models/posts.py: 0
[2019-12-31 16:49:23] EDIT isn/models/profiles.py: 0
[2019-12-31 16:49:25] EDIT isn/models/profiles.py: 0
[2019-12-31 16:50:08] EDIT isn/models/profiles.py: 0
[2019-12-31 16:50:14] EDIT isn/models/profiles.py: 0
[2019-12-31 16:50:36] EDIT isn/models/tags.py: 0
[2019-12-31 16:52:03] EDIT isn/views/default/index.html: 0
[2019-12-31 16:52:06] EDIT isn/views/default/index.html: -5
[2019-12-31 16:52:19] EDIT isn/views/default/index.html: 5
[2019-12-31 16:52:36] EDIT isn/views/default/index.html: 0
[2019-12-31 16:53:43] EDIT isn/views/default/index.html: 1
[2019-12-31 16:53:46] EDIT isn/views/default/index.html: 0
[2019-12-31 16:58:18] EDIT isn/views/default/index.html: 0
[2019-12-31 16:58:23] EDIT isn/views/default/index.html: -12
[2019-12-31 16:58:45] EDIT isn/views/default/index.html: -6
[2019-12-31 16:59:00] EDIT isn/views/default/index.html: 0
[2019-12-31 16:59:22] EDIT isn/views/default/index.html: 0
[2019-12-31 16:59:32] EDIT isn/views/default/index.html: 0
[2019-12-31 17:00:16] EDIT isn/views/default/index.html: 0
[2020-01-01 18:50:54] EDIT isn/views/layout.html: 0
[2020-01-01 18:51:27] EDIT isn/views/layout.html: 0
[2020-01-01 18:56:14] EDIT isn/models/menu.py: 2
[2020-01-01 18:56:30] EDIT isn/models/menu.py: 0
[2020-01-01 18:56:55] EDIT isn/models/menu.py: 1
[2020-01-01 18:57:11] EDIT isn/models/menu.py: 0
[2020-01-01 18:57:16] EDIT isn/models/menu.py: 0
[2020-01-01 18:57:18] EDIT isn/models/menu.py: 0
[2020-01-01 18:57:20] EDIT isn/models/menu.py: 0
[2020-01-01 18:57:22] EDIT isn/models/menu.py: 0
[2020-01-01 18:57:26] EDIT isn/models/menu.py: 0
[2020-01-01 18:58:05] EDIT isn/models/menu.py: 4
[2020-01-01 18:58:08] EDIT isn/models/menu.py: 0
[2020-01-01 18:58:20] EDIT isn/models/menu.py: 0
[2020-01-01 18:59:15] EDIT isn/models/menu.py: 0
[2020-01-01 18:59:57] EDIT isn/models/menu.py: 0
